################################################################
# pp.client-plone
# (C) 2013-2019,  ZOPYX, D-72074 Tuebingen, www.zopyx.com
################################################################

